à l'heure actuelle:value=0
actuellement:value=0
anciennement:value=-1
après:value=1
aujourd’hui:value=0
auparavant:value=-1
avant:value=-1
bientôt:value=1
demain:value=1
hier:value=-1
maintenant:value=0	
récemment:value=-1