aaren
aaron
abbe
abdel
abdul
abdulla
abdullah
abe
abel
abhishek
abhner
abinash
abner
abraham
abram
abrasax
absalom
acar
acayib
achilles
achmad
acton
adair
adal
adalbert
adaliah
adam
adar
adel
ademola
aden
adhamh
adigun
adil
adin
adir
adiv
adlai
adler
adli
admon
adni
adolf
adolph
adolpho
adolphus
adom
adon
ador
adri
adrian
adrien
aegri
aeneas
aengus
aeron
affonso
agathon
agler
agni
agustek
agustin
ahanu
aharon
ahdik
ahil
ahir
ahmad
ahmed
ahmik
ahren
aidan
ajani
ajay
ajit
akando
akar
akhil
akiko
akil
akim
akio
akira
akule
ala
alain
alan
aland
alaric
alasdair
alastair
alaster
alban
albert
alberto
albie
albin
albrecht
alby
alden
alder
aldis
aldo
aldous
aldy
alec
aled
alein
alejandro
alek
aleksander
aleksandr
aleser
alessandro
alex
alexander
alexandr
alexandre
alf
alferral
alfonse
alfonso
alfred
alfredo
alfwine
algar
algernon
al-hamra
alhim
ali
alick
alim
aliphont
alistair
alistar
alister
alix
allan
allen
almeric
almon
alnath
alois
alok
alon
alonso
aloysius
alphonse
alpo
alrik
alroy
altair
alton
alvar
alvertos
alvin
alvis
alwin
alwyn
alyn
amadeo
amadeus
amadis
amado
amal
amando
amar
amardad
ambrose
ameer
ameni
amiel
amilcar
amin
amir
amit
amlan
amon
amos
amre
anacleto
anand
anatole
anders
anderson
andrÃ©s
andras
andrés
andre
andreas
andrei
andrej
andres
andrew
andrique
andris
andr??s
andr?s
andrzej
andy
anestes
aneurin
angelo
anghared
angus
anibal
aniol
anka
annan
anselm
ansgar
anthony
antoine
anton
antonio
antony
anurag
anzhel
aodh
apenimon
apollonios
aquiles
archibald
archie
arcy
arden
ardon
aren
ares
ari
arian
aries
aristide
arkadi
arkady
arkell
arkin
arley
arman
armand
armando
armanti
armin
armon
armondo
arne
arnie
arnold
aron
arpad
arri
arslan
arte
arthur
arthuro
artin
artur
arturo
arun
arvid
asher
ashlin
ashtad
ashton
ashur
asif
asker
astevean
astor
atal
atheel
athol
atman
atsuhiko
atsushi
attila
auberon
aubert
audley
audrey
audric
audvard
augie
augustin
augustus
aurek
aurelius
avedig
avel
averil
avi
avraham
axel
ayaz
aylwin
azad
azfar
azi
azuka
bahman
bakr
bal
baldric
baldwin
balfour
baltazar
balthazar
balto
bana-barna
bardo
bardon
barnabas
barnaby
barnard
barney
barnie
barret
barron
barry
bart
bartek
bartholo
bartholomew
bartholomieu
bartlomiej
bartolomiy
barton
bartosz
bartram
basham
basilio
bastian
bastien
baudouin
baul
bavol
bayley
beaumont
beauregard
bechtel
beck
bedrich
behram
beldon
bello
beltran
bem
bemossed
ben
benedict
benjamin
benji
bennett
bennie
benno
benny
benoit
berek
bergren
berhan
berk
bernabe
bernal
bernard
bernd
bernhard
bernie
bert
bertin
bertok
bertram
bertrand
bevis
bhaltair
bhanu
bhaven
bheki
bialy
bilal
bildad
billy
bily
binyong
bipin
bjÃ¶rn
björn
bjoern
bjorn
bjorne
bj??rn
bj?rn
blair
blaise
blazej
bo
boaz
bob
boba
bobush
bodaway
boddu
bodi
bodog
bogdan
bogumil
boguslaw
bohdan
boleslaw
bonito
bor
borghild
boria
boris
borislav
botan
bour
bowle
bowman
boyce
boyd
boz
bozydar
bradburn
braden
bradlee
bradley
bradshaw
brad
brahma
bram
brandan
brandeis
brandon
brandt
brannon
brayden
brencis
brendan
brendon
brenton
bret
brian
brice
bridger
britton
broc
brock
broderick
brodney
brody
bronislaw
bronson
bronte
brown
browning
bruce
bruin
bruno
bruns
bryan
bryant
bryce
bryne
bryrony
buck
buckminster
bucky
bud
burian
burkhard
burne
burr
burt
burton
byrn
byrne
byron
caddy
cadel
caden
cadfael
cadwallader
cahil
cain
caiseal
caius
cal
calder
caleb
callum
calo
calum
calut
calv
calvin
camerino
cameron
camlo
campbell
camron
canton
canute
cappi
carew
carl
carle
carleton
carlo
carlos
carlton
carlucho
carmit
carson
carswell
carter
carvel
cashel
casimir
caspar
casper
castel
castor
catalin
cathol
cearbhall
cebastian
cecil
cedric
celyn
cemal
ceslovas
chaim
chaiwat
chal
chandler
chane
chaney
channing
charles
charley
charlton
chaseston
chauncey
chauncy
chauvin
chavalit
chay
chaz
che
chen
cheslav
chesley
chesmu
chet
chi
chiah
chick
chico
chik
chioke
chip
chou
chris
christao
christoph
christophe
christopher
chucky
chung
ciaran
cicero
cid
cirill
cisco
cladio
claes
clancy
clarence
clarke
claud
claude
claudio
claudius
claus
clayton
cleanth
clem
clemens
clement
clemente
cletes
cleto
clevonne
clifford
cliffy
clifton
clint
clinton
clive
cnut
coinneach
colby
cole
coleman
colin
collin
colman
colon
colter
colton
columba
conan
conleth
connor
conrad
constantin
constantine
constantinos
cooper
corbin
cordell
corin
corky
cormac
cornelius
cort
corwin
courtney
craig
crispian
crispin
crispus
cristian
cristobal
cullen
curcio
curt
curtis
cuthbert
cy
cyrek
cyril
cyrill
cyrus
czcibor
czeslaw
dabid
dabney
dafydd
dafyyd
dag
dagwood
dain
dal
dalal
daley
dali
dalton
damek
damian
damien
damon
dan
dandy
dane
daniel
danielek
daniil
danko
danne
dannie
danny
dante
danylko
danyon
d'arcy
darden
dareo
darien
darin
darius
darl
darlin
darrell
darren
darryl
daryl
daryle
dat
dave
david
davidde
davidek
davis
davon
dawayne
dawid
dawson
deane
decker
declan
dederick
deemer
deepak
deepesh
del
delano
delbert
dell
delmar
del mar
delmore
demetrius
demothi
demyan
den
dene
denes
denholm
denis
deniz
dennis
denny
denton
denys
denzel
denzil
deon
derek
derik
dermot
derrek
derrick
des
desmond
deven
dewey
dewitt
dex
dexter
dichali
dickens
dickie
dickson
dicky
dicta
diederich
diederick
diego
dierk
dieter
dietmar
dietrich
digby
diggory
diglio
dilbert
dillon
dillwyn
dilwyn
dimitri
dimo
dino
diodore
dion
dionys
direk
dirk
dixon
dmitri
dmitriy
dob
dobbs
dobie
dobrogost
dobromil
dobry
doby
dolan
dolf
dolph
dom
domingo
dominic
dominik
donahue
donald
donaldo
donalt
donard
donato
donley
donnell
donnelly
donnie
donohue
donovan
donovon
dorian
dorrell
doug
dougie
douglas
douglass
doyle
drachen
dragos
drayton
driscoll
driskoll
dru
drystan
duane
duddley
dudley
duig
dukarai
dumaka
duman
dunc
duncan
dunham
dunstan
duran
durand
durriken
durril
durward
dusten
dustin
duy
dwain
dwane
dwayne
dwight
dyami
dyl
dylan
dylanne
dyre
dzetins
eamon
eamonn
eanruig
ebenezer
eberhard
ebert
eberto
eck
eckbert
eckerd
eckert
eckhard
ed
eddie
eddy
edgar
edgars
edison
edko
edlin
edmon
edmond
edmund
edmundson
edo
edric
eduard
eduardo
edward
edwin
edzko
efim
efraim
egbert
egor
eike
eilwyn
einar
eiran
ekkehardt
elbert
eldad
elden
eldon
eldred
eldridge
elek
elemar
elfred
elias
elijah
elimelech
elisha
elki
elliot
ellis
ellwood
elmar
elmer
elmo
elof
eloy
elrad
elric
elroy
elsu
elton
elvis
elwin
elwood
ely
eman
emanuel
emerson
emery
emidio
emil
emile
emilio
emils
emlyn
emmanuel
emmet
emmett
emmitt
emok
emory
emrys
eneas
engel
enli
ennio
enoch
enos
enrico
enrique
enyeto
eoin
ephraim
erasmus
erberto
erek
erhard
eri
eric
erich
erick
erico
erik
erle
ernest
ernesto
ernie
ernst
errol
erskin
ervin
erwin
eshkol
esmond
espiridion
esra
essien
estavan
esteban
estifano
estivido
etan
ethan
ethmer
etu
eugene
eugenio
eustace
ev
evan
evander
everardo
everett
everhard
evert
ezar
ezekiel
ezer
ezhno
ezra
fabio
fabrice
fairleigh
faisal
faiz
faizel
farrell
farris
faruk
faxon
fayette
fedor
fehmi
felice
feliciano
felike
feliks
felino
felip
felipe
felippe
felix
feodor
ferdinand
ferghus
fergus
ferguson
feris
fermi
fermin
fernando
fess
festus
fidel
fido
filander
filip
filippo
finbar
fineas
fingal
finlay
finley
finn
fion
fisk
fletch
flint
flip
florian
floyd
flynn
fonz
fonzie
forester
forrest
forrester
foss
foster
fotios
fount
francesco
franchot
francisco
franco
francois
frankie
franklin
franko
franky
frans
fransisc
franz
fraser
frasier
fravardin
fred
freddie
freddy
frederich
frederick
fredi
fredrik
friedhelm
friedhold
friedrich
frigyes
frits
fritz
frode
fulton
fynn
fyodor
gabe
gabriel
gahiji
gaius
galen
gallard
galloway
galt
gamaliel
gar
gardner
garek
gareth
garfield
garner
garret
garreth
garrett
garrick
garry
garth
gary
gaspar
gaudi
gautam
gauthier
gautier
gav
gaven
gavin
gawain
gawayne
gayler
gaylor
gaylord
gazza
gebhard
geert
geffrey
gellert
gelo
gene
gennaro
geno
geoff
geoffrey
geoffroi
geoffroy
geordie
georg
george
georges
georgi
georgy
ger
gerald
geraldo
gerard
gerardo
geraud
gerben
gerek
gerhard
gerik
germain
gernot
gerold
gerome
geronimo
gerontius
gerrie
gerry
gert
gertie
gervaise
gerwulf
geyo
gheorghe
giacomo
giamo
giannes
gianni
giannini
gide
gideon
gidon
giermo
gil
gilbert
giles
gillespie
gilliam
gillis
giotto
giovanni
giraud
girolamo
gitta
giuliano
giuseppe
giusto
glen
glyn
glynn
godfrey
godfry
goel
gomer
gonzales
gonzalez
gonzo
gopinath
goran
gorden
gordie
gordon
gordy
gorton
goshoven
gotlieb
gottfridh
gottfried
gotthilf
govad
govindan
gowon
goyo
grady
graeme
graham
grahame
grantland
grantley
granville
gratien
greg
gregg
gregor
gregory
grenville
griff
griffith
grigori
grimes
grosvenor
grover
gruffudd
gruffydd
grzegorz
gualterio
guayo
gugielmo
guglielmo
guido
guillaume
guillermo
guillo
guiming
guittiere
gulianno
gullermo
gunderson
gunn
gunnar
gunnerson
gunny
gunter
gunther
gus
gustacio
gustaf
gustav
gustave
gustavo
gustin
gustovo
guto
gyorgy
habaier
habib
hadar
hadden
hadrian
hadry
haider
haime
haj
hakan
hakeem
hakem
hakon
hal
hale
halil
halim
hamal
hamdel
hamid
hamil
hamill
hamilton
hamish
hamlin
hammond
hamon
hamp
hampton
handy
hanibal
hanif
hank
hannes
hannibal
hanraoi
hans
hansel
hanuman
hao
haralambie
harald
haraldo
harb
harbert
hardiman
harding
hari
harlan
harley
harlowe
harman
harmon
harold
haroun
harrison
harry
hartmut
harvey
harvie
hasad
hasan
hashim
hashir
hasin
haskel
haskell
hassel
hastin
havelock
hayden
haydyn
haywood
heber
hebert
hector
hedeon
hedley
heiko
heinrich
heintz
hektor
helaku
helge
helki
helmut
hemant
henderson
hendrik
hengky
henk
henning
henrey
henri
henrico
henrik
henry
herbert
herberto
herbie
heremias
heri
heriberto
herm
herman
hermann
hermon
hernando
heronim
herriberto
hersch
herschel
hersh
herve
hervey
hesus
hew
hewart
hewes
hewett
hewie
heywood
hicks
hidemichi
hiermo
hieronym
hieronymos
hilfredo
hillel
hilmar
himanshu
hinko
hinrich
hinun
hiram
hiromi
hiroshi
hirsch
hirsh
hirus
hisoka
hjalmar
hnatochko
hob
hobard
hobbes
hodge
hodges
hodgkins
hohan
hoibeard
hoireabard
holden
holger
holic
holleb
holles
hollings
hollins
holt
homer
hooper
horace
horacio
horatio
horentio
horis
hormazd
hormazed
horst
hosea
hotaka
houman
howard
howel
howell
howi
howie
hoyle
hoyt
hsieh
hubbard
hubert
huberto
huey
hugh
hughes
hughie
hugibert
hugo
hulin
humbert
humberto
humfrey
humphrey
hurley
husain
hutchinson
hute
huu
huw
huzaifa
hyman
hywel
iago
iain
ian
iannis
ibrahim
ico
ifor
igantov
igasho
iggy
ignac
ignatius
ignazio
igor
ike
ilan
ildefonso
iliia
ilya
imamu
immanuel
immauel
inderpreet
inermo
ingemar
ingham
ingmar
ingolf
inigo
iniko
innokenti
inriques
inteus
inzamamul
ioakim
ioan
ioannes
ioel
ioseph
ira
irv
irvin
irving
irwan
irwin
irwyn
isaac
isaak
isac
isacc
isador
isaia
isaiah
ishmael
isidore
istu
itzhak
ivan
ivanovitch
ivar
ives
ivo
ivon
ivor
iwan
izaak
izraelius
izrail
izsu
izumi
izzie
izzy
jaafar
jaan
jaba
jabez
jabril
jacian
jacinto
jack
jackson
jacky
jacob
jacque
jacques
jafar
jafet
jagger
jago
jahi
jairy
jake
jakob
jal
jamal
james
jameson
jamey
jamie
jamil
jamison
janek
jan-harm
janick
janine
janos
jansen
japheth
jared
jarek
jarett
jari
jarogniew
jaromir
jaron
jaroslav
jaroslaw
jarred
jas
jascha
jason
jasper
javas
javier
javin
javis
jay
jayant
jayantha
jaye
jean-paul
jeb
jed
jedidiah
jedrek
jedrzej
jeeves
jeff
jefferey
jeffers
jefferson
jeffrey
jeffry
jehan
jellow
jens
jeoffroi
jephthah
jeptha
jer
jered
jereme
jeremiah
jeremy
jerm
jerome
jeronimo
jerrie
jerrod
jerrome
jerry
jervis
jerzy
jesito
jesper
jess
jesse
jesu
jethro
jian
jian-jin
jibben
jie
jiho
jim
jimi
jimmie
jimmy
jiro
jivin
joab
joachim
joannes
joao
joaquim
joaquin
jobe
joe
joel
joey
johan
johanan
johann
johannes
john
johnie
johnnie
johnny
johns
johnson
jolon
jon
jona
jonah
jonam
jonas
jonathan
jonathon
jones
jonson
joquin
joran
jordi
jordyn
jorg
jorge
jorgy
jori
jorji
jose
joseph
josh
joshua
josia
josiah
jotham
jouni
jourdan
jov
juan
jubal
judah
judas
judd
jules
julian
julio
julius
julle
jumah
juno
jurate
jurgen
juri
justin
justinian
justino
justivo
justo
kabil
kadar
kadin
kadir
kaenan
kain
kaine
kaitlyn
kalb
kaleb
kaliq
kalkin
kalman
kaloosh
kalus
kalvin
kamal
kamel
kamil
kane
kantu
karch
kareem
karif
karim
karime
karl
karlheinz
karlik
karmel
karol
karolek
karolis
kaseko
kashif
kasib
kasim
kasimir
kaspar
kasper
katrick
katsuji
kau
kayin
kayne
kazimierz
kazutaka
keahi
keanu
keb
kedar
keddy
kedem
keefe
keegan
keenan
keighry
keir
keith
keizo
kelash
kelby
kelcey
kele
kelemen
kelsay
kelsey
kelsie
ken
kenan
kendric
kendrick
kenichi
kenn
kenneth
kenney
kennie
kenny
kenrick
kenyon
kermit
kern
kerry
kers
kersen
kerwin
kesar
kesin
kesse
kester
keven
kevin
khallil
khamtai
kharalambos
kharald
khordad
khristian
khristoforos
khrystiyiyan
khrystofor
khurshid
khvyados
kibbe
kiel
kieran
kijika
kiko
kil
kilian
killian
kimo
kingsley
kip
kipling
kiral
kirby
kiril
kirill
kirk
kistna
kistur
kito
kivi
kiyoshi
kizza
klaas
klamencas
klaudiusz
klaus
klavdu
klemen
klemenis
klemens
klement
klemo
klimek
kliment
knoton
knud
knut
kobe
kofi
koki
kokudza
kolya
konane
kondrad
konrad
kontar
korb
korey
korudon
kosei
kostas
kosti
kovar
kreg
krikor
krispin
kriss
krister
kristian
kristo
kristof
kristofer
kristoffer
kristopher
kritos
kruin
krys
krzys
krzysztof
kulen
kumar
kumaravel
kuper
kurt
kurtis
kuzih
kwaku
kwam
kwame
kwan
kwasi
kwazi
kwesi
kyler
kyriakos
kyril
kyrillos
kyros
kyrylo
laban
labid
lachlan
ladd
lado
lafayette
lafredo
laine
laird
lal
lalo
lamar
lamarr
lambert
lamel
lammond
lamond
lamont
landon
langdon
langston
langundo
lani
lanu
larkin
larrance
larrie
larry
lars
larson
lauento
launce
launcelot
lauran
laurence
laurens
laurent
laurentius
laurenz
lavelle
lavi
lawren
lawrence
lawry
laws
lawson
lealand
leanardo
leander
leben
lech
lechito
leegrant
leeland
leif
leit
leland
lem
lemoine
lemuel
len
lenci
lenhart
lenn
lennard
lennie
lenno
lennor
lennox
lenny
lenox
lensar
lenz
leon
leonard
leonardo
leonardus
leoncio
leone
leonhard
leonid
leopold
leron
leroy
lester
leszek
levi
lew
lewie
lewis
lex
liam
liang
liko
linden
lindon
linfred
linn
linus
linwood
lio
lionardo
lionel
lionello
lito
liu
liwanu
llewellyn
llewelyn
lloyd
llywelyn
lodewick
lodewijk
lodovico
loe
loew
loman
lonato
lonny
loran
lorant
loranzio
loren
lorens
lorenzo
lorne
lothar
lou
loudon
louie
louis
lovell
lovre
lowe
lowell
lowenhard
lowther
loyd
lubomir
lucas
lucian
luciano
lucius
lucjan
ludovic
ludvig
ludwig
ludwik
luigi
luis
luister
luiz
lukas
luke
lukyan
lunt
luteris
luther
lutherio
lutz
lyel
lyell
lyle
lyndon
lynwood
lyron
mac
macaliano
mace
maciej
macisimi
mack
mackeefry
mackeighry
madhujit
madoc
madog
mads
maelmore
maggio
magnus
mahir
mahlom
maik
maimun
mairav
maitland
makan
makis
maksim
mal
malachi
malachy
malcolm
malik
malon
mamo
mancho
manchu
manco
mandek
mander
mando
mandrill
manfred
manipi
manlio
manny
mansa
mansah
mansoor
mansur
manu
manuel
manus
maolmuire
maqsood
marar
marc
marcel
marcelino
marcellus
marcial
marcius
marco
marcos
marcus
marek
mariano
marid
marin
mario
marius
markell
markos
markus
marlin
marlon
marly
marmaduke
marnin
maron
marquitos
marr
marrim
marsilio
mart
martainn
martel
marten
martie
martijn
martin
martinicino
marton
marty
marut
marv
marve
marven
marvin
masahiro
masamitsu
masamo
masashi
mascimo
mashruk
masial
maslin
masou
massey
massimiliano
masud
mata
matej
matejo
mateo
mateusz
matheo
mathew
mathias
mathieu
mato
matope
mats
matteo
matthaeus
matthaus
mattheo
matthes
mattheus
matthew
matthia
matthias
mattie
mattieu
matty
matyas
maur
maureo
maurice
mauricio
maurie
maurits
maurizio
mauro
maurosio
maursio
maury
maxime
maximilian
maximiliano
maximilianus
maximilien
maximillian
maximino
maximus
maxino
maxio
maxwell
mayer
mayon
mccullagh
mccullock
mccullouch
mccullough
mechtilde
mehdi
mehmet
mehtar
meir
melor
melvern
melville
melvin
melvyn
mendeley
menker
menno
mensah
menz
mered
merlin
merrick
merripen
merritt
mertin
mervin
mervyn
merwyn
messimo
mestipen
meurig
meuriz
mew
meyer
micajah
micalao
michael
michail
micheil
michel
michele
michiel
mick
mickel
mickey
micky
mieczyslaw
migael
miguel
miguelito
mikael
mike
mikel
mikhael
mikhail
mikkel
mil
milap
milko
mills
milo
milogost
milos
milt
milton
mimis
mingan
mingdong
ming-fang
mingo
mirit
mirko
miroslav
miroslaw
misu
mitch
mitchel
mitchell
moab
moe
mohammad
mohammed
mohan
mojag
molimo
monet
monro
monroe
montagu
montague
monte
montgomery
monty
moon-suk
moore
mordecai
mordikai
morel
morey
moricz
moritz
morley
morrel
morrell
morrice
morrison
morriss
morten
mortie
mortimer
morton
morven
mose
moses
moshe
mosheh
mosie
moss
mossimo
mostyn
moswen
motega
moy
moyes
moze
mozes
muhammad
mull
munda
mundek
mundy
munro
munroe
munrow
murdo
murdoch
murray
murry
murtagh
murthy
muruganandan
mushtaq
myles
myron
nabil
nader
nado
nagid
nahele
nahma
nahum
naldo
nalren
namid
namir
nanda
nandin
nando
nandor
nano
naomichi
narain
nard
nasser
nat
natal
natale
natan
nataneal
nataniel
nate
nathan
nathaneal
nathaniel
natilio
nav
naveed
nawat
nayati
neacail
neal
neale
nealey
neall
nealson
necho
necolas
neddie
neddy
neel
neelam
neeraj
nehru
neil
neill
neirin
nelek
nelo
nels
nelson
nen
neper
nepter
nermin
neron
nestor
neto
nevil
nevile
neville
nevin
newlin
newton
nial
niall
nibaw
nibras
nicabar
nicanor
niccolini
niccolo
nichol
nicholas
nick
nicklas
nickolaus
nico
nicodemus
nicolaas
nicolai
nicolao
nicolas
nicolaus
nicolum
niel
niels
nielson
nigan
nigel
nik
nikhil
nikita
nikky
niklas
niko
nikolaas
nikolai
nikolaos
nikolaus
nikolos
niles
nilo
nils
nilson
nimbus
nino
nionios
nishu
nissim
nitin
nitis
niven
nix
nnamdi
noah
noam
nobby
noble
nobumitsu
nobutaka
nodin
noe
nolan
noland
noldy
noll
norbert
normand
normie
normy
norris
nort
nowel
nowell
nowles
noy
numair
numps
nur adiba
nuri
nusair
oakley
oba
obadiah
oberon
obram
octavian
octavius
oday
odell
odin
odinan
odinum
odion
odissan
odo
odoardo
odom
odon
odysseus
ofer
offin
ogün
ogÃ¼n
ogden
ogdon
ogdun
og??n
og?n
ogun
ohanko
ohannes
ohin
oighrig
oko
okon
olaf
olav
oleg
olery
oles
olin
oliva
oliver
oliverio
olivier
olivo
olley
ollie
olly
olorun
olwen
omar
omer
omero
onan
onani
ondrej
ondro
o'neil
onfredo
onfroi
onofre
onofredo
oon-gil
opie
oracio
orasio
orazio
orban
ordando
orel
oren
orien
orin
oriole
oris
orito
orji
orland
orlondo
ormond
orrin
orsino
orson
orunjan
orv
orvie
orville
osamu
osbert
osborn
osborne
oseep
oskar
osman
osmans
osmin
osmond
osric
ossian
ossie
ossy
oswald
oswell
oswin
otadan
otello
othello
otho
othom
othoneil
otis
otman
oto
otone
otoniel
ottah
ottmar
otto
otton
ottorino
ouray
ove
ovid
owain
owayne
owen
owudunni
ozzie
paavo
pabis
pablino
pablo
pabolo
packy
paco
paddy
paden
padraic
padraig
padrig
padruig
paki
pal
palacido
paladin
pallaton
panchito
pancho
pancholo
pandelo
panfilo
pankaj
panzo
paoli
paolino
paolo
papillong
paplo
papplo
papplone
paquin
parker
parlan
parnel
parnell
parris
parrish
parsefal
parsifal
parthalon
partholon
parzival
pascal
paschall
paschell
pascoe
pasqual
passifull
patamon
patriciano
patricio
patrick
patrin
patritio
patrizius
pattin
pattison
patton
patwin
paul
paulico
paulie
paulino
paulius
paullin
paulo
paulos
paulot
paultje
paulum
paulus
pava
pavek
pavel
pavlin
pavlo
pawel
pawley
paxton
payat
payne
payton
peadair
pearce
pearson
peddy
peder
pedr
pedran
pedro
peers
pelo
pelota
penjani
pentti
peppo
per
perce
perceval
percifull
percival
percy
perico
periquin
perkin
pernel
pernell
pero
perrin
perry
perseus
pershing
pesach
pete
peter
peters
petey
petie
petr
petrick
petrie
petronio
petronius
petros
petruccio
petrus
petruscha
peyo
peyton
phelis
phil
philip
philippe
philippos
phillip
phineas
photios
phuong
pias
pico
piedro
pierin
piero
pierre
pierrot
piers
piet
pieter
pietro
pilan
pilar
pilib
pillan
pino
pinocchio
pinon
piotr
pipito
pippo
piquin
pirro
piter
pito
pitricio
pius
pjotr
placedo
placi
placido
plasio
plato
platon
plesido
pol
polin
poncho
ponso
porfirio
pov
powa
prabhakar
prakash
pranas
prashant
prem
preston
priscillo
przemek
puay
puck
pudge
purdy
pursey
purvis
pyotr
qasim
qiang
quaashie
quan
quentin
quico
quill
quillan
quillermo
quina
quincy
quinitus
quinlan
quint
quintin
quinton
quique
quiqui
quirin
quito
quoc-an
rab
raban
rabbie
rabi
rabin
racho
radek
radman
radomil
radoslav
radoslaw
radzimierz
raeburn
rafael
rafal
rafalek
rafayil
rafe
raff
raffael
raffaello
rafi
rafiuddin
raghnall
ragnar
raheem
rahman
rahmet
rahul
raiden
raimondo
raimont
raimund
raimundo
raini
rajan
rajib
rajiv
raldan
ralf
ralph
ralphie
rameo
ramesh
ramman
ramon
ramsay
ramsden
ramsey
rand
randall
randell
randey
randie
randle
randolf
randolph
randy
ranon
ranulf
raoul
raphael
rapier
rashad
rashadi
rashid
rashmi
rashne
rasmus
rastislav
rastus
raul
raulio
raulo
ravi
ravid
raviv
ray
rayke
raymond
rayner
raynold
razi
reade
reamonn
redbert
redd
reddy
rede
redmond
redmund
redolfo
redvers
reece
rees
reese
reg
reges
reggie
reggy
reginald
reginmunt
regis
regnauld
regnault
regulo
reico
reid
reimund
rein
reinald
reinaldo
reinaldos
reiner
reinhard
reinhold
reinold
reinwald
reiss
remington
renaldo
renard
renato
renaud
renaut
rendor
rene
renenet
renouf
renzo
resham
reuben
reubin
reuel
reuven
rex
rexford
rey
reyes
reyhan
reymond
reymundo
reynaldo
reynaldos
reynold
rezso
rhett
rhodri
rhydderch
rhys
ric
ricardo
riccardo
ricciardo
richard
richardson
richart
richerd
richi
richie
rick
rickert
ricky
rico
ricordio
ridley
riik
rikard
riks
riley
rimington
rimon
rimril
rinaldo
ringan
ringo
rio
riobard
rion
riquerto
riqui
risto
ritchie
riyadh
rizwan
rizzo
roald
roan
robar
robb
robbie
robby
robert
roberto
robertson
robi
robin
robinson
robson
rocco
rodalfo
rodas
roddie
roddy
roderic
roderich
roderick
rodge
rodger
rodgers
rodhlann
rodin
rodman
rodney
rodolfo
rodolph
rodrego
rodrick
rodrigo
roeland
rog
rogelio
roger
rogerio
rogero
rogers
roguerio
rohelio
rohin
rohit
roi
rojelio
roland
rolando
roldan
rolf
rolfe
rollan
rolland
rollie
rollin
rollins
rollo
rollon
rolly
rolo
rolon
rolph
romain
romano
romarico
romeo
romino
ron
ronald
ronaldo
ronan
ronnie
ronny
roosevelt
roppon
rorie
rory
rosmer
ross
roth
rouvin
roverto
rowe
rowland
roy
royce
royd
roydon
ruairdhri
ruairi
rubben
ruben
ruberto
rudd
ruddy
rudgerd
rudiger
rudo
rudolf
rudolph
rudolpho
rudolphus
rudro
rudy
rudyard
rufe
rufeo
ruferto
ruffo
rufino
rufinus
rufio
rufo
rufus
ruggero
ruggiero
rugino
rujelio
rulf
runako
rupert
ruperto
rupo
ruprecht
rurich
rurik
rushi
russ
russel
rutger
rutherford
rutty
ruy
ruyen
ryan
rydell
ryland
ryszard
sabriam
saburo
sacarias
sacco
sachar
sadanand
saddam
sahale
sahen
saidur
saiful
sailbheastar
sakima
sal
saleem
salih
salim
salmalin
salman
salmon
salomon
salos
salud
salustiano
salvador
salvadore
salvalus
salvatore
sam
samaresh
sameer
samein
sami
samir
sammon
sammy
samouel
samuel
samuele
samuelo
samuru
sanat
sandeep
sander
sanders
sandip
sandon
sandor
sandy
sangdrax
sani
sanjay
sanjeev
sanson
sarad
sarge
sargent
sarngin
sarojin
sarosh
sartan
satish
saul
saurabh
saurav
sauveur
savalus
savas
savvas
sayaka
schindler
schroeder
schuyler
scotie
scott
scotti
scottie
scotty
scuit
seaian
seamus
sean
seann
sebastian
sebastiano
sebastianos
sebastien
sebastiene
seetharam
sef
sefano
segel
segrerico
seif
seker
selbastiano
selby
selim
selmar
selvestre
sem
senon
senthilkumar
senwe
seosaidh
sepp
seppel
septimus
serge
sergei
sergio
sermet
sesilium
sessylt
seth
seumas
seumus
sevastian
sevilen
sextus
seymore
seymour
shabbeedur
shad
shafayet
shah
shahak
shahriyar
shalom
shameel
shamir
shamus
shandar
shane
shankar
shanon
shaquille
sharif
shaul
shaun
shaw
shawn
shay
sheard
sheehan
shehrevar
sheldon
shelomoh
shelton
shem
shemuel
shen
shengdar
sheratan
sherborn
sheridan
sherm
sherman
shih
shimon
shimshon
shing
shino
shiro
shlomo
sholom
sholto
shrihas
shu-hung
shul
shyenti
sicilio
sid
sidath
siddharth
sidonius
siegfried
sieghard
sieglinde
siegmund
sig
sigamond
sigfrid
sigismond
sigismund
sigismundo
sigismundus
sigmond
sigmund
sigurd
silas
silvain
silvano
silvanus
silverio
silvester
silvestre
silvestro
silvio
simao
simen
simeon
simon
simpkins
simpson
sinclair
singh
siobhan
siomonn
sipatu
sirilio
sirol
siva
sivan
skylar
slane
slavik
slawomir
slevin
sly
sobieslaw
socrates
sofian
sofronio
sohil
sol
solaman
solamh
sollie
solly
solomon
solon
somhairle
songan
sonny
sophronio
sosimo
sped
spence
spenser
spiridion
spofford
spofforth
srdan
srdjan
sreko
srinivas
srulka
stan
stancio
stane
stanislaus
stanislav
stanislaw
stanlee
stanleigh
stanley
stanly
starling
starr
steaphan
stefan
stefano
steffen
stephan
stephano
stephanos
stephanus
stephen
stepka
sterling
steuart
steve
steven
stevin
stew
stewart
stiggur
stiobhan
stirling
stoffel
stori
strom
stu
stuart
styg
subhani
subir
sudhir
sudi
suman
suraj
suresh
suti
sven
sworn
sy
syd
syed
sylbestrio
sylvesdre
sylvester
syril
szczepan
szczesny
szymon
taavetti
tabib
tabo
tabor
tadeo
tadeusz
tadhg
tadi
tadzi
taghi
tahir
taison
tait
taj
takashi
takayuki
takeshi
takis
takuji
tales
taliesin
talli
talman
taman
tamar
tamid
tandy
tanek
taner
tanner
tano
taras
tarek
tarintino
tariq
tarn
taro
tarquin
tarrin
tarrus
tatsu
tatsuya
tatton
tauno
taurin
tavis
tavito
tavo
tawno
tayib
tayor
tazari
tearach
tearlach
tecumseh
ted
tedi
teemofe
telek
telem
tem
teman
temani
temotio
tente
teodero
teodocio
teodoro
teofilo
terance
tercero
terence
terenciano
terencio
terentilo
tererso
teres
tero
terrance
terrel
terrell
terrence
terrill
terris
terry
tertulian
terumi
tetris
teuvo
tev
teva
tewdwer
tewdwr
thad
thaddaus
thaddeo
thaddeus
thaddy
thady
thaine
thanh
thanit
thanos
thayne
theador
theirry
thelonius
thematheo
themis
theo
theobald
theoderic
theodor
theodore
theodoric
theodoros
theodorus
theophilus
theron
thiago
thierry
thom
thoma
thomas
thomesito
thompson
thor
thorburn
thorold
thorsten
tibs
ticho
tidzio
tielman
tiennot
tieodoro
tiger
tijen
tilden
tilo
tim
timateo
timeen
timeto
timeus
timin
timiro
timiteo
timmie
timmy
timo
timofei
timon
timoteo
timoteus
timothee
timotheos
timotheus
timothy
timoty
timur
tino
tiomoid
tiong
tito
titus
tivon
tobal
tobalito
tobbar
tobias
toby
tod
todd
todor
todorko
todoro
tohon
tokahi
tola
tolek
toli
tom
toma
toman
tomas
tomasens
tomash
tomaso
tomaz
tomi
tomito
tomlin
tommie
tommy
tomoaki
tomoichiro
tomotaka
tomoyuki
toncho
tonek
tong
tonico
tonio
tony
topi
topwe
tord
tore
torquil
torrence
torrey
torsten
toshio
totoya
tovano
tovi
tranter
trav
trefor
trev
trevor
trey
trimoteo
tristam
tristan
tristem
tristram
truxton
trystan
tuan
tuck
tucker
tudor
tudur
tudyr
tukuli
tullio
tully
tung
tunu
tupi
turi
turlogh
turlough
tuta
tuto
ty
tybalt
tyee
tyehimba
tyler
tymon
tyrome
tyrone
tyson
tzu-chin
ualtar
ubaldo
uberto
ude
udo
ugo
ugolino
ugon
uilleam
uilliam
uillioe
uinsionn
uland
ulandus
ulf
ulick
ulises
ulmar
ulric
ulrich
ultan
ulysses
umberto
umesh
urbaine
urbano
urbanus
uri
uriah
uriel
urien
urlando
urso
urson
ursuelo
ursul
urvan
usman
ussulo
uthman
utz
uval
uwe
uzoma
vaclav
vadim
vadin
vahe
valdemar
valen
valente
valentijn
valentin
valentino
valin
valmy
vance
vanka
vann
vanni
varden
vareck
varrick
vartan
vartolomei
vartolomeiu
vas
vasco
vasilios
vasilis
vasiliy
vasin
vassily
vassilyij
vasska
vasyltso
vaughan
vaughn
vazul
veicente
velden
vencel
venedictos
veniamin
venjamin
venu
venudhar
venya
vered
vergil
vern
vernaldo
vernaldos
vernavela
verne
verney
vernon
vic
vicencio
vicente
vicentius
vicenty
vicenz
vicenzo
viche
vicho
vick
vico
victo
victoir
victorianas
victorino
victro
vida
vidal
vidrik
viet
vifforiano
viggo
vignesh
vihelm
vijay
vikentij
vildor
vilhelm
vili
viljo
vilmar
viltoriano
vin
vinal
vince
vincent
vincente
vincze
vinn
vinnie
vinny
vinod
vipin
virge
virgil
virgilio
virror
visent
vishal
vishnu
vitaliy
vite
vito
vitorio
vittorio
vizente
vlach
vladilen
vladimir
vladimiro
vladislav
vladlen
vlado
volker
volodymyr
von
voravit
voytek
vural
vyacheslav
waban
waclaw
wade
wakiza
walache
wald
walden
waldo
walid
walker
wallace
wallache
wallie
wallis
wally
walsh
walt
walter
walters
walther
walton
wapi
ward
wardell
warden
warder
wariner
warner
warren
warrick
wasi
wasif
wat
waterio
watkin
watson
watty
wawrzyniec
waylen
waylon
wayne
webb
webbe
webber
webster
welby
welch
wemilat
wemilo
wen
wenceslas
wende
wendell
wenzel
werner
wes
wesh
wesley
westleigh
westley
weston
wicent
wichado
wieland
wielislaw
wil
wilanu
wilbert
wilbur
wilder
wildon
wiley
wilfred
wilfrid
wilfried
wilhelm
wilkes
willard
willem
willet
willi
william
williamson
willie
willis
willy
wilmer
wilmot
wilny
wilson
wilu
wim
wimund
winfield
winfried
wingi
winn
winston
winthrop
winton
winward
wislaw
witold
wladyslaw
wlodek
wlodzimierz
wlodzislaw
wojciech
wolfgang
wolfram
wong
woodie
woodrow
woody
wouter
wright
wulfric
wuliton
wullie
wunand
wuyi
wyatt
wylie
wymond
wynono
wynton
wystan
xabiel
xabier
xan
xaver
xavier
xayvion
xeno
xenos
xerex
xerxes
xever
xiaobing
xietian
ximon
xu
xun
yaakov
yaar
yadid
yadin
yafeu
yaholo
yahya
yakar
yakecen
yakez
yakim
yakov
yamal
yamin
yamut
yan
yanai
yancy
yang
yann
yannic
yannis
yanoach
yao
yarb
yarden
yared
yarev
yarin
yasah
yasahiro
yash
yashaskar
yasin
yasir
yassen
yasser
yasuharu
yasuhiro
yasuo
ya'ub
yayo
yazid
yechezkel
yedidiah
yehochanan
yehonatan
yehosha
yehoshua
yehoyakim
yehudah
yemon
yered
yergei
yeriel
yerik
yeshayahu
yevgeniy
yirmeyah
yirmeyahu
yisha
yishachar
yishmael
yisrael
yitro
yitzchak
yitzhak
ymir
ynyr
yochanan
yoel
yogi
yohanan
yonah
yonas
yonatan
yoni
yoomtis
yorath
yorick
yosef
yoseph
youkioma
yoyi
yoyo
ysaac
ysaax
ysac
ysaye
yssach
yubo
yucel
yu-fai
yuhsin
yukio
yulius
yunis
yunus
yure
yuri
yuriy
yury
yusef
yushua
yussuf
yusuf
yusuke
yutu
yuval
yuyo
yuyu
yvaine
yves
yvon
zac
zacarias
zacariaz
zacario
zacaris
zaccaria
zacchaeus
zach
zachaios
zachariah
zacharias
zacharie
zacharjasz
zachary
zachery
zack
zackry
zaed
zafar
zahair
zahavi
zahid
zahir
zahur
zaid
zak
zakai
zakarias
zakarij
zakariyya
zaki
zakur
zameer
zamir
zander
zane
zaquarias
zareb
zarek
zavad
zavdiel
zavier
zavior
zayd
zbigniew
zbyhnev
zdenek
zdeslav
zdzislaw
zeb
zebadiah
zebedee
zebulon
zebulun
zechariah
zecharya
zed
zedekiah
zeeman
zehariah
zeheb
zeinab
zeke
zeki
zelimir
zemariah
zeno
zenobios
zenon
zenos
zenzel
zeph
zephaniah
zephyr
zephyrus
zerach
zerachia
zerem
zerika
zethus
zeus
zev
zevach
zevachiah
zevadiah
zevid
zevulun
zhanmiao
zhihua
zhiyu
zhong
zhu
zhuang
zig
ziggy
zikomo
zimon
zimran
zimri
zinan
zinova
zinte
zipkiyah
zitkaduta
zitomir
ziv
zivan
ziven
ziya
ziyad
zlatan
zlavador
zollie
zolly
zoltan
zomeir
zorya
zotom
zsigmond
zuberi
zubin
zuhayr
zwi
zygmunt
zyrillus
zyrillus
jean-claude
aristides
jordan
atticus
koen
hassan
abu
hussein
inacio
khalid
bobby
nabeel
brady
mason
aiden
benedikt
spencer
grayson
dorion
nic
bryson
kyle
cody
issac
jordy
vlad
ziqi
mackenzie
kris
jarret
dominick
jaret
jorick
kai
logan
gonzalo
khaled
constand
glenn
mustafa
aslan
dariusz
lamberto
